<div class="Title_1_4" style="margin-top:10px; margin-bottom: 10px;">
<div class="col-lg-12 col-md-12 col-sm-12 col-xs-12 item" style="margin-bottom: 20px;">
<h2>包含項目：</h2>
<p>說明或敘述</p>
<ul style="margin-left: 30px;">
<li>敘述文字</li>
<li>敘述文字</li>
<li>敘述文字</li>
</ul>
</div>
<div class="col-lg-12 col-md-12 col-sm-12 col-xs-12 item" style="margin-bottom: 20px;">
<h2>不含項目：</h2>
<p>說明或敘述</p>
<ul style="margin-left: 30px;">
<li>敘述文字</li>
<li>敘述文字</li>
<li>敘述文字</li>
</ul>
</div>
<div class="col-lg-12 col-md-12 col-sm-12 col-xs-12 item" style="margin-bottom: 20px;">
<h2>團票說明</h2>
<p>團票說明或敘述</p>
<ul style="margin-left: 30px;">
<li>敘述文字</li>
<li>敘述文字</li>
<li>敘述文字</li>
</ul>
</div>
</div>