<div class="Title_1" style="margin-top:10px;">
<div class="col-lg-12 col-md-12 col-sm-12 col-xs-12">
<h2 style="font-size:26px; text-align:center">銷售特色</h2>
<hr style="border-top:2px solid #83b53c; margin-bottom:10px; margin-top:5px; width:100%" />
<p style="font-size:18px; text-align:center;color: #FF0000;">詳細說明</p>
</div>
</div>
<div class="Title_1" style="margin-top:10px;">
<div class="col-lg-12 col-md-12 col-sm-12 col-xs-12 item0">
<h2 style="font-size:20px; text-align:center">特別贈送</h2>
<hr style="border-top:2px solid #3333; margin-bottom:10px; margin-top:5px; width:100%" />
<p style="color:#ff0000; font-size:18px; text-align:center">這裡打上特別贈送說明</p>
</div>
</div>
<div class="Title_1" style="margin-top:10px;">
<div class="col-lg-12 col-md-12 col-sm-12 col-xs-12 item0">
<h2 style="font-size:20px; text-align:center">購物安排</h2>

<hr style="border-top:2px solid #3333; margin-bottom:10px; margin-top:5px; width:100%" />
<p style="color:#ff0000; font-size:18px; text-align:center">這裡打上購物景點說明</p>
</div>
</div>